<svg xmlns="http://www.w3.org/2000/svg" width="19.348" height="20.11" viewBox="0 0 19.348 20.11">
  <g id="Group_1414" data-name="Group 1414" transform="translate(-3985.571 -559.812)">
    <path id="Path_11272" data-name="Path 11272" d="M812.5,1881.5h17.348" transform="translate(3174.071 -1320.688)" fill="none" stroke="#5dff00" stroke-linecap="round" stroke-width="2"/>
    <path id="Path_11273" data-name="Path 11273" d="M812.5,1881.5h17.348" transform="translate(3174.071 -1311.57)" fill="none" stroke="#5dff00" stroke-linecap="round" stroke-width="2"/>
    <path id="Path_11415" data-name="Path 11415" d="M812.5,1881.5h17.348" transform="translate(3174.071 -1302.579)" fill="none" stroke="#5dff00" stroke-linecap="round" stroke-width="2"/>
  </g>
</svg>
